verilog_design-master/mult_par/transcript
# vsim -c work.mult_tb -novopt 
# Start time: 15:27:02 on Apr 06,2022
# ** Warning: (vsim-8891) All optimizations are turned off because the -novopt switch is in effect. This will cause your simulation to run very slowly. If you are using this switch to preserve visibility for Debug or PLI features please see the User's Manual section on Preserving Object Visibility with vopt.
# //  Questa Sim-64
# //  Version 10.6c win64 Jul 26 2017
# //
# //  Copyright 1991-2017 Mentor Graphics Corporation
# //  All Rights Reserved.
# //
# //  QuestaSim and its associated documentation contain trade
# //  secrets and commercial or financial information that are the property of
# //  Mentor Graphics Corporation and are privileged, confidential,
# //  and exempt from disclosure under the Freedom of Information Act,
# //  5 U.S.C. Section 552. Furthermore, this information
# //  is prohibited from disclosure under the Trade Secrets Act,
# //  18 U.S.C. Section 1905.
# //
# Refreshing F:/FPGA/Verilog_design/mult_par/work.mult_tb
# Loading work.mult_tb
# Refreshing F:/FPGA/Verilog_design/mult_par/work.mult
# Loading work.mult
# a= 0, b= 0, y=  0
# a= 1, b= 0, y=  0
# a= 2, b= 0, y=  0
# a= 3, b= 0, y=  0
# a= 4, b= 0, y=  0
# a= 5, b= 0, y=  0
# a= 6, b= 0, y=  0
# a= 7, b= 0, y=  0
# a= 8, b= 0, y=  0
# a= 9, b= 0, y=  0
# a=10, b= 0, y=  0
# a=11, b= 0, y=  0
# a=12, b= 0, y=  0
# a=13, b= 0, y=  0
# a=14, b= 0, y=  0
# a=15, b= 0, y=  0
# a= 0, b= 1, y=  0
# a= 1, b= 1, y=  1
# a= 2, b= 1, y=  2
# a= 3, b= 1, y=  3
# a= 4, b= 1, y=  4
# a= 5, b= 1, y=  5
# a= 6, b= 1, y=  6
# a= 7, b= 1, y=  7
# a= 8, b= 1, y=  8
# a= 9, b= 1, y=  9
# a=10, b= 1, y= 10
# a=11, b= 1, y= 11
# a=12, b= 1, y= 12
# a=13, b= 1, y= 13
# a=14, b= 1, y= 14
# a=15, b= 1, y= 15
# a= 0, b= 2, y=  0
# a= 1, b= 2, y=  2
# a= 2, b= 2, y=  4
# a= 3, b= 2, y=  6
# a= 4, b= 2, y=  8
# a= 5, b= 2, y= 10
# a= 6, b= 2, y= 12
# a= 7, b= 2, y= 14
# a= 8, b= 2, y= 16
# a= 9, b= 2, y= 18
# a=10, b= 2, y= 20
# a=11, b= 2, y= 22
# a=12, b= 2, y= 24
# a=13, b= 2, y= 26
# a=14, b= 2, y= 28
# a=15, b= 2, y= 30
# a= 0, b= 3, y=  0
# a= 1, b= 3, y=  3
# a= 2, b= 3, y=  6
# a= 3, b= 3, y=  9
# a= 4, b= 3, y= 12
# a= 5, b= 3, y= 15
# a= 6, b= 3, y= 18
# a= 7, b= 3, y= 21
# a= 8, b= 3, y= 24
# a= 9, b= 3, y= 27
# a=10, b= 3, y= 30
# a=11, b= 3, y= 33
# a=12, b= 3, y= 36
# a=13, b= 3, y= 39
# a=14, b= 3, y= 42
# a=15, b= 3, y= 45
# a= 0, b= 4, y=  0
# a= 1, b= 4, y=  4
# a= 2, b= 4, y=  8
# a= 3, b= 4, y= 12
# a= 4, b= 4, y= 16
# a= 5, b= 4, y= 20
# a= 6, b= 4, y= 24
# a= 7, b= 4, y= 28
# a= 8, b= 4, y= 32
# a= 9, b= 4, y= 36
# a=10, b= 4, y= 40
# a=11, b= 4, y= 44
# a=12, b= 4, y= 48
# a=13, b= 4, y= 52
# a=14, b= 4, y= 56
# a=15, b= 4, y= 60
# a= 0, b= 5, y=  0
# a= 1, b= 5, y=  5
# a= 2, b= 5, y= 10
# a= 3, b= 5, y= 15
# a= 4, b= 5, y= 20
# a= 5, b= 5, y= 25
# a= 6, b= 5, y= 30
# a= 7, b= 5, y= 35
# a= 8, b= 5, y= 40
# a= 9, b= 5, y= 45
# a=10, b= 5, y= 50
# a=11, b= 5, y= 55
# a=12, b= 5, y= 60
# a=13, b= 5, y= 65
# a=14, b= 5, y= 70
# a=15, b= 5, y= 75
# a= 0, b= 6, y=  0
# a= 1, b= 6, y=  6
# a= 2, b= 6, y= 12
# a= 3, b= 6, y= 18
# a= 4, b= 6, y= 24
# a= 5, b= 6, y= 30
# a= 6, b= 6, y= 36
# a= 7, b= 6, y= 42
# a= 8, b= 6, y= 48
# a= 9, b= 6, y= 54
# a=10, b= 6, y= 60
# a=11, b= 6, y= 66
# a=12, b= 6, y= 72
# a=13, b= 6, y= 78
# a=14, b= 6, y= 84
# a=15, b= 6, y= 90
# a= 0, b= 7, y=  0
# a= 1, b= 7, y=  7
# a= 2, b= 7, y= 14
# a= 3, b= 7, y= 21
# a= 4, b= 7, y= 28
# a= 5, b= 7, y= 35
# a= 6, b= 7, y= 42
# a= 7, b= 7, y= 49
# a= 8, b= 7, y= 56
# a= 9, b= 7, y= 63
# a=10, b= 7, y= 70
# a=11, b= 7, y= 77
# a=12, b= 7, y= 84
# a=13, b= 7, y= 91
# a=14, b= 7, y= 98
# a=15, b= 7, y=105
# a= 0, b= 8, y=  0
# a= 1, b= 8, y=  8
# a= 2, b= 8, y= 16
# a= 3, b= 8, y= 24
# a= 4, b= 8, y= 32
# a= 5, b= 8, y= 40
# a= 6, b= 8, y= 48
# a= 7, b= 8, y= 56
# a= 8, b= 8, y= 64
# a= 9, b= 8, y= 72
# a=10, b= 8, y= 80
# a=11, b= 8, y= 88
# a=12, b= 8, y= 96
# a=13, b= 8, y=104
# a=14, b= 8, y=112
# a=15, b= 8, y=120
# a= 0, b= 9, y=  0
# a= 1, b= 9, y=  9
# a= 2, b= 9, y= 18
# a= 3, b= 9, y= 27
# a= 4, b= 9, y= 36
# a= 5, b= 9, y= 45
# a= 6, b= 9, y= 54
# a= 7, b= 9, y= 63
# a= 8, b= 9, y= 72
# a= 9, b= 9, y= 81
# a=10, b= 9, y= 90
# a=11, b= 9, y= 99
# a=12, b= 9, y=108
# a=13, b= 9, y=117
# a=14, b= 9, y=126
# a=15, b= 9, y=135
# a= 0, b=10, y=  0
# a= 1, b=10, y= 10
# a= 2, b=10, y= 20
# a= 3, b=10, y= 30
# a= 4, b=10, y= 40
# a= 5, b=10, y= 50
# a= 6, b=10, y= 60
# a= 7, b=10, y= 70
# a= 8, b=10, y= 80
# a= 9, b=10, y= 90
# a=10, b=10, y=100
# a=11, b=10, y=110
# a=12, b=10, y=120
# a=13, b=10, y=130
# a=14, b=10, y=140
# a=15, b=10, y=150
# a= 0, b=11, y=  0
# a= 1, b=11, y= 11
# a= 2, b=11, y= 22
# a= 3, b=11, y= 33
# a= 4, b=11, y= 44
# a= 5, b=11, y= 55
# a= 6, b=11, y= 66
# a= 7, b=11, y= 77
# a= 8, b=11, y= 88
# a= 9, b=11, y= 99
# a=10, b=11, y=110
# a=11, b=11, y=121
# a=12, b=11, y=132
# a=13, b=11, y=143
# a=14, b=11, y=154
# a=15, b=11, y=165
# a= 0, b=12, y=  0
# a= 1, b=12, y= 12
# a= 2, b=12, y= 24
# a= 3, b=12, y= 36
# a= 4, b=12, y= 48
# a= 5, b=12, y= 60
# a= 6, b=12, y= 72
# a= 7, b=12, y= 84
# a= 8, b=12, y= 96
# a= 9, b=12, y=108
# a=10, b=12, y=120
# a=11, b=12, y=132
# a=12, b=12, y=144
# a=13, b=12, y=156
# a=14, b=12, y=168
# a=15, b=12, y=180
# a= 0, b=13, y=  0
# a= 1, b=13, y= 13
# a= 2, b=13, y= 26
# a= 3, b=13, y= 39
# a= 4, b=13, y= 52
# a= 5, b=13, y= 65
# a= 6, b=13, y= 78
# a= 7, b=13, y= 91
# a= 8, b=13, y=104
# a= 9, b=13, y=117
# a=10, b=13, y=130
# a=11, b=13, y=143
# a=12, b=13, y=156
# a=13, b=13, y=169
# a=14, b=13, y=182
# a=15, b=13, y=195
# a= 0, b=14, y=  0
# a= 1, b=14, y= 14
# a= 2, b=14, y= 28
# a= 3, b=14, y= 42
# a= 4, b=14, y= 56
# a= 5, b=14, y= 70
# a= 6, b=14, y= 84
# a= 7, b=14, y= 98
# a= 8, b=14, y=112
# a= 9, b=14, y=126
# a=10, b=14, y=140
# a=11, b=14, y=154
# a=12, b=14, y=168
# a=13, b=14, y=182
# a=14, b=14, y=196
# a=15, b=14, y=210
# a= 0, b=15, y=  0
# a= 1, b=15, y= 15
# a= 2, b=15, y= 30
# a= 3, b=15, y= 45
# a= 4, b=15, y= 60
# a= 5, b=15, y= 75
# a= 6, b=15, y= 90
# a= 7, b=15, y=105
# a= 8, b=15, y=120
# a= 9, b=15, y=135
# a=10, b=15, y=150
# a=11, b=15, y=165
# a=12, b=15, y=180
# a=13, b=15, y=195
# a=14, b=15, y=210
# a=15, b=15, y=225
# a= 0, b= 0, y=  0
# a= 1, b= 0, y=  0
# a= 2, b= 0, y=  0
# a= 3, b= 0, y=  0
# a= 4, b= 0, y=  0
# a= 5, b= 0, y=  0
# a= 6, b= 0, y=  0
# a= 7, b= 0, y=  0
# a= 8, b= 0, y=  0
# a= 9, b= 0, y=  0
# a=10, b= 0, y=  0
# a=11, b= 0, y=  0
# a=12, b= 0, y=  0
# a=13, b= 0, y=  0
# a=14, b= 0, y=  0
# a=15, b= 0, y=  0
# a= 0, b= 1, y=  0
# a= 1, b= 1, y=  1
# a= 2, b= 1, y=  2
# a= 3, b= 1, y=  3
# a= 4, b= 1, y=  4
# a= 5, b= 1, y=  5
# a= 6, b= 1, y=  6
# a= 7, b= 1, y=  7
# a= 8, b= 1, y=  8
# a= 9, b= 1, y=  9
# a=10, b= 1, y= 10
# a=11, b= 1, y= 11
# a=12, b= 1, y= 12
# a=13, b= 1, y= 13
# a=14, b= 1, y= 14
# a=15, b= 1, y= 15
# a= 0, b= 2, y=  0
# a= 1, b= 2, y=  2
# a= 2, b= 2, y=  4
# a= 3, b= 2, y=  6
# a= 4, b= 2, y=  8
# a= 5, b= 2, y= 10
# a= 6, b= 2, y= 12
# a= 7, b= 2, y= 14
# a= 8, b= 2, y= 16
# a= 9, b= 2, y= 18
# a=10, b= 2, y= 20
# a=11, b= 2, y= 22
# a=12, b= 2, y= 24
# a=13, b= 2, y= 26
# a=14, b= 2, y= 28
# a=15, b= 2, y= 30
# a= 0, b= 3, y=  0
# a= 1, b= 3, y=  3
# a= 2, b= 3, y=  6
# a= 3, b= 3, y=  9
# a= 4, b= 3, y= 12
# a= 5, b= 3, y= 15
# a= 6, b= 3, y= 18
# a= 7, b= 3, y= 21
# a= 8, b= 3, y= 24
# a= 9, b= 3, y= 27
# a=10, b= 3, y= 30
# a=11, b= 3, y= 33
# a=12, b= 3, y= 36
# a=13, b= 3, y= 39
# a=14, b= 3, y= 42
# a=15, b= 3, y= 45
# a= 0, b= 4, y=  0
# a= 1, b= 4, y=  4
# a= 2, b= 4, y=  8
# a= 3, b= 4, y= 12
# a= 4, b= 4, y= 16
# a= 5, b= 4, y= 20
# a= 6, b= 4, y= 24
# a= 7, b= 4, y= 28
# a= 8, b= 4, y= 32
# a= 9, b= 4, y= 36
# a=10, b= 4, y= 40
# a=11, b= 4, y= 44
# a=12, b= 4, y= 48
# a=13, b= 4, y= 52
# a=14, b= 4, y= 56
# a=15, b= 4, y= 60
# a= 0, b= 5, y=  0
# a= 1, b= 5, y=  5
# a= 2, b= 5, y= 10
# a= 3, b= 5, y= 15
# a= 4, b= 5, y= 20
# a= 5, b= 5, y= 25
# a= 6, b= 5, y= 30
# a= 7, b= 5, y= 35
# a= 8, b= 5, y= 40
# a= 9, b= 5, y= 45
# a=10, b= 5, y= 50
# a=11, b= 5, y= 55
# a=12, b= 5, y= 60
# a=13, b= 5, y= 65
# a=14, b= 5, y= 70
# a=15, b= 5, y= 75
# a= 0, b= 6, y=  0
# a= 1, b= 6, y=  6
# a= 2, b= 6, y= 12
# a= 3, b= 6, y= 18
# a= 4, b= 6, y= 24
# a= 5, b= 6, y= 30
# a= 6, b= 6, y= 36
# a= 7, b= 6, y= 42
# a= 8, b= 6, y= 48
# a= 9, b= 6, y= 54
# a=10, b= 6, y= 60
# a=11, b= 6, y= 66
# a=12, b= 6, y= 72
# a=13, b= 6, y= 78
# a=14, b= 6, y= 84
# a=15, b= 6, y= 90
# a= 0, b= 7, y=  0
# a= 1, b= 7, y=  7
# a= 2, b= 7, y= 14
# a= 3, b= 7, y= 21
# a= 4, b= 7, y= 28
# a= 5, b= 7, y= 35
# a= 6, b= 7, y= 42
# a= 7, b= 7, y= 49
# a= 8, b= 7, y= 56
# a= 9, b= 7, y= 63
# a=10, b= 7, y= 70
# a=11, b= 7, y= 77
# a=12, b= 7, y= 84
# a=13, b= 7, y= 91
# a=14, b= 7, y= 98
# a=15, b= 7, y=105
# a= 0, b= 8, y=  0
# a= 1, b= 8, y=  8
# a= 2, b= 8, y= 16
# a= 3, b= 8, y= 24
# a= 4, b= 8, y= 32
# a= 5, b= 8, y= 40
# a= 6, b= 8, y= 48
# a= 7, b= 8, y= 56
# a= 8, b= 8, y= 64
# a= 9, b= 8, y= 72
# a=10, b= 8, y= 80
# a=11, b= 8, y= 88
# a=12, b= 8, y= 96
# a=13, b= 8, y=104
# a=14, b= 8, y=112
# a=15, b= 8, y=120
# a= 0, b= 9, y=  0
# a= 1, b= 9, y=  9
# a= 2, b= 9, y= 18
# a= 3, b= 9, y= 27
# a= 4, b= 9, y= 36
# a= 5, b= 9, y= 45
# a= 6, b= 9, y= 54
# a= 7, b= 9, y= 63
# a= 8, b= 9, y= 72
# a= 9, b= 9, y= 81
# a=10, b= 9, y= 90
# a=11, b= 9, y= 99
# a=12, b= 9, y=108
# a=13, b= 9, y=117
# a=14, b= 9, y=126
# a=15, b= 9, y=135
# a= 0, b=10, y=  0
# a= 1, b=10, y= 10
# a= 2, b=10, y= 20
# a= 3, b=10, y= 30
# a= 4, b=10, y= 40
# a= 5, b=10, y= 50
# a= 6, b=10, y= 60
# a= 7, b=10, y= 70
# a= 8, b=10, y= 80
# a= 9, b=10, y= 90
# a=10, b=10, y=100
# a=11, b=10, y=110
# a=12, b=10, y=120
# a=13, b=10, y=130
# a=14, b=10, y=140
# a=15, b=10, y=150
# a= 0, b=11, y=  0
# a= 1, b=11, y= 11
# a= 2, b=11, y= 22
# a= 3, b=11, y= 33
# a= 4, b=11, y= 44
# a= 5, b=11, y= 55
# a= 6, b=11, y= 66
# a= 7, b=11, y= 77
# a= 8, b=11, y= 88
# a= 9, b=11, y= 99
# a=10, b=11, y=110
# a=11, b=11, y=121
# a=12, b=11, y=132
# a=13, b=11, y=143
# a=14, b=11, y=154
# a=15, b=11, y=165
# a= 0, b=12, y=  0
# a= 1, b=12, y= 12
# a= 2, b=12, y= 24
# a= 3, b=12, y= 36
# a= 4, b=12, y= 48
# a= 5, b=12, y= 60
# a= 6, b=12, y= 72
# a= 7, b=12, y= 84
# a= 8, b=12, y= 96
# a= 9, b=12, y=108
# a=10, b=12, y=120
# a=11, b=12, y=132
# a=12, b=12, y=144
# a=13, b=12, y=156
# a=14, b=12, y=168
# a=15, b=12, y=180
# a= 0, b=13, y=  0
# a= 1, b=13, y= 13
# a= 2, b=13, y= 26
# a= 3, b=13, y= 39
# a= 4, b=13, y= 52
# a= 5, b=13, y= 65
# a= 6, b=13, y= 78
# a= 7, b=13, y= 91
# a= 8, b=13, y=104
# a= 9, b=13, y=117
# a=10, b=13, y=130
# a=11, b=13, y=143
# a=12, b=13, y=156
# a=13, b=13, y=169
# a=14, b=13, y=182
# a=15, b=13, y=195
# a= 0, b=14, y=  0
# a= 1, b=14, y= 14
# a= 2, b=14, y= 28
# a= 3, b=14, y= 42
# a= 4, b=14, y= 56
# a= 5, b=14, y= 70
# a= 6, b=14, y= 84
# a= 7, b=14, y= 98
# a= 8, b=14, y=112
# a= 9, b=14, y=126
# a=10, b=14, y=140
# a=11, b=14, y=154
# a=12, b=14, y=168
# a=13, b=14, y=182
# a=14, b=14, y=196
# a=15, b=14, y=210
# a= 0, b=15, y=  0
# a= 1, b=15, y= 15
# a= 2, b=15, y= 30
# a= 3, b=15, y= 45
# a= 4, b=15, y= 60
# a= 5, b=15, y= 75
# a= 6, b=15, y= 90
# a= 7, b=15, y=105
# a= 8, b=15, y=120
# a= 9, b=15, y=135
# a=10, b=15, y=150
# a=11, b=15, y=165
# a=12, b=15, y=180
# a=13, b=15, y=195
# a=14, b=15, y=210
# a=15, b=15, y=225
# a= 0, b= 0, y=  0
# a= 1, b= 0, y=  0
# a= 2, b= 0, y=  0
# a= 3, b= 0, y=  0
# a= 4, b= 0, y=  0
# a= 5, b= 0, y=  0
# a= 6, b= 0, y=  0
# a= 7, b= 0, y=  0
# a= 8, b= 0, y=  0
# a= 9, b= 0, y=  0
# a=10, b= 0, y=  0
# a=11, b= 0, y=  0
# a=12, b= 0, y=  0
# a=13, b= 0, y=  0
# a=14, b= 0, y=  0
# a=15, b= 0, y=  0
# a= 0, b= 1, y=  0
# a= 1, b= 1, y=  1
# a= 2, b= 1, y=  2
# a= 3, b= 1, y=  3
# a= 4, b= 1, y=  4
# a= 5, b= 1, y=  5
# a= 6, b= 1, y=  6
# a= 7, b= 1, y=  7
# a= 8, b= 1, y=  8
# a= 9, b= 1, y=  9
# a=10, b= 1, y= 10
# a=11, b= 1, y= 11
# a=12, b= 1, y= 12
# a=13, b= 1, y= 13
# a=14, b= 1, y= 14
# a=15, b= 1, y= 15
# a= 0, b= 2, y=  0
# a= 1, b= 2, y=  2
# a= 2, b= 2, y=  4
# a= 3, b= 2, y=  6
# a= 4, b= 2, y=  8
# a= 5, b= 2, y= 10
# a= 6, b= 2, y= 12
# a= 7, b= 2, y= 14
# a= 8, b= 2, y= 16
# a= 9, b= 2, y= 18
# a=10, b= 2, y= 20
# a=11, b= 2, y= 22
# a=12, b= 2, y= 24
# a=13, b= 2, y= 26
# a=14, b= 2, y= 28
# a=15, b= 2, y= 30
# a= 0, b= 3, y=  0
# a= 1, b= 3, y=  3
# a= 2, b= 3, y=  6
# a= 3, b= 3, y=  9
# a= 4, b= 3, y= 12
# a= 5, b= 3, y= 15
# a= 6, b= 3, y= 18
# a= 7, b= 3, y= 21
# a= 8, b= 3, y= 24
# a= 9, b= 3, y= 27
# a=10, b= 3, y= 30
# a=11, b= 3, y= 33
# a=12, b= 3, y= 36
# a=13, b= 3, y= 39
# a=14, b= 3, y= 42
# a=15, b= 3, y= 45
# a= 0, b= 4, y=  0
# a= 1, b= 4, y=  4
# a= 2, b= 4, y=  8
# a= 3, b= 4, y= 12
# a= 4, b= 4, y= 16
# a= 5, b= 4, y= 20
# a= 6, b= 4, y= 24
# a= 7, b= 4, y= 28
# a= 8, b= 4, y= 32
# a= 9, b= 4, y= 36
# a=10, b= 4, y= 40
# a=11, b= 4, y= 44
# a=12, b= 4, y= 48
# a=13, b= 4, y= 52
# a=14, b= 4, y= 56
# a=15, b= 4, y= 60
# a= 0, b= 5, y=  0
# a= 1, b= 5, y=  5
# a= 2, b= 5, y= 10
# a= 3, b= 5, y= 15
# a= 4, b= 5, y= 20
# a= 5, b= 5, y= 25
# a= 6, b= 5, y= 30
# a= 7, b= 5, y= 35
# a= 8, b= 5, y= 40
# a= 9, b= 5, y= 45
# a=10, b= 5, y= 50
# a=11, b= 5, y= 55
# a=12, b= 5, y= 60
# a=13, b= 5, y= 65
# a=14, b= 5, y= 70
# a=15, b= 5, y= 75
# a= 0, b= 6, y=  0
# a= 1, b= 6, y=  6
# a= 2, b= 6, y= 12
# a= 3, b= 6, y= 18
# a= 4, b= 6, y= 24
# a= 5, b= 6, y= 30
# a= 6, b= 6, y= 36
# a= 7, b= 6, y= 42
# a= 8, b= 6, y= 48
# a= 9, b= 6, y= 54
# a=10, b= 6, y= 60
# a=11, b= 6, y= 66
# a=12, b= 6, y= 72
# a=13, b= 6, y= 78
# a=14, b= 6, y= 84
# a=15, b= 6, y= 90
# a= 0, b= 7, y=  0
# a= 1, b= 7, y=  7
# a= 2, b= 7, y= 14
# a= 3, b= 7, y= 21
# a= 4, b= 7, y= 28
# a= 5, b= 7, y= 35
# a= 6, b= 7, y= 42
# a= 7, b= 7, y= 49
# a= 8, b= 7, y= 56
# a= 9, b= 7, y= 63
# a=10, b= 7, y= 70
# a=11, b= 7, y= 77
# a=12, b= 7, y= 84
# a=13, b= 7, y= 91
# a=14, b= 7, y= 98
# a=15, b= 7, y=105
# a= 0, b= 8, y=  0
# a= 1, b= 8, y=  8
# a= 2, b= 8, y= 16
# a= 3, b= 8, y= 24
# a= 4, b= 8, y= 32
# a= 5, b= 8, y= 40
# a= 6, b= 8, y= 48
# a= 7, b= 8, y= 56
# a= 8, b= 8, y= 64
# a= 9, b= 8, y= 72
# a=10, b= 8, y= 80
# a=11, b= 8, y= 88
# a=12, b= 8, y= 96
# a=13, b= 8, y=104
# a=14, b= 8, y=112
# a=15, b= 8, y=120
# a= 0, b= 9, y=  0
# a= 1, b= 9, y=  9
# a= 2, b= 9, y= 18
# a= 3, b= 9, y= 27
# a= 4, b= 9, y= 36
# a= 5, b= 9, y= 45
# a= 6, b= 9, y= 54
# a= 7, b= 9, y= 63
# a= 8, b= 9, y= 72
# a= 9, b= 9, y= 81
# a=10, b= 9, y= 90
# a=11, b= 9, y= 99
# a=12, b= 9, y=108
# a=13, b= 9, y=117
# a=14, b= 9, y=126
# a=15, b= 9, y=135
# a= 0, b=10, y=  0
# a= 1, b=10, y= 10
# a= 2, b=10, y= 20
# a= 3, b=10, y= 30
# a= 4, b=10, y= 40
# a= 5, b=10, y= 50
# a= 6, b=10, y= 60
# a= 7, b=10, y= 70
# a= 8, b=10, y= 80
# a= 9, b=10, y= 90
# a=10, b=10, y=100
# a=11, b=10, y=110
# a=12, b=10, y=120
# a=13, b=10, y=130
# a=14, b=10, y=140
# a=15, b=10, y=150
# a= 0, b=11, y=  0
# a= 1, b=11, y= 11
# a= 2, b=11, y= 22
# a= 3, b=11, y= 33
# a= 4, b=11, y= 44
# a= 5, b=11, y= 55
# a= 6, b=11, y= 66
# a= 7, b=11, y= 77
# a= 8, b=11, y= 88
# a= 9, b=11, y= 99
# a=10, b=11, y=110
# a=11, b=11, y=121
# a=12, b=11, y=132
# a=13, b=11, y=143
# a=14, b=11, y=154
# a=15, b=11, y=165
# a= 0, b=12, y=  0
# a= 1, b=12, y= 12
# a= 2, b=12, y= 24
# a= 3, b=12, y= 36
# a= 4, b=12, y= 48
# a= 5, b=12, y= 60
# a= 6, b=12, y= 72
# a= 7, b=12, y= 84
# a= 8, b=12, y= 96
# a= 9, b=12, y=108
# a=10, b=12, y=120
# a=11, b=12, y=132
# a=12, b=12, y=144
# a=13, b=12, y=156
# a=14, b=12, y=168
# a=15, b=12, y=180
# a= 0, b=13, y=  0
# a= 1, b=13, y= 13
# a= 2, b=13, y= 26
# a= 3, b=13, y= 39
# a= 4, b=13, y= 52
# a= 5, b=13, y= 65
# a= 6, b=13, y= 78
# a= 7, b=13, y= 91
# a= 8, b=13, y=104
# a= 9, b=13, y=117
# a=10, b=13, y=130
# a=11, b=13, y=143
# a=12, b=13, y=156
# a=13, b=13, y=169
# a=14, b=13, y=182
# a=15, b=13, y=195
# a= 0, b=14, y=  0
# a= 1, b=14, y= 14
# a= 2, b=14, y= 28
# a= 3, b=14, y= 42
# a= 4, b=14, y= 56
# a= 5, b=14, y= 70
# a= 6, b=14, y= 84
# a= 7, b=14, y= 98
# a= 8, b=14, y=112
# a= 9, b=14, y=126
# a=10, b=14, y=140
# a=11, b=14, y=154
# a=12, b=14, y=168
# a=13, b=14, y=182
# a=14, b=14, y=196
# a=15, b=14, y=210
# a= 0, b=15, y=  0
# a= 1, b=15, y= 15
# a= 2, b=15, y= 30
# a= 3, b=15, y= 45
# a= 4, b=15, y= 60
# a= 5, b=15, y= 75
# a= 6, b=15, y= 90
# a= 7, b=15, y=105
# a= 8, b=15, y=120
# a= 9, b=15, y=135
# a=10, b=15, y=150
# a=11, b=15, y=165
# a=12, b=15, y=180
# a=13, b=15, y=195
# a=14, b=15, y=210
# a=15, b=15, y=225
# a= 0, b= 0, y=  0
# a= 1, b= 0, y=  0
# a= 2, b= 0, y=  0
# a= 3, b= 0, y=  0
# a= 4, b= 0, y=  0
# a= 5, b= 0, y=  0
# a= 6, b= 0, y=  0
# a= 7, b= 0, y=  0
# a= 8, b= 0, y=  0
# a= 9, b= 0, y=  0
# a=10, b= 0, y=  0
# a=11, b= 0, y=  0
# a=12, b= 0, y=  0
# a=13, b= 0, y=  0
# a=14, b= 0, y=  0
# a=15, b= 0, y=  0
# a= 0, b= 1, y=  0
# a= 1, b= 1, y=  1
# a= 2, b= 1, y=  2
# a= 3, b= 1, y=  3
# a= 4, b= 1, y=  4
# a= 5, b= 1, y=  5
# a= 6, b= 1, y=  6
# a= 7, b= 1, y=  7
# a= 8, b= 1, y=  8
# a= 9, b= 1, y=  9
# a=10, b= 1, y= 10
# a=11, b= 1, y= 11
# a=12, b= 1, y= 12
# a=13, b= 1, y= 13
# a=14, b= 1, y= 14
# a=15, b= 1, y= 15
# a= 0, b= 2, y=  0
# a= 1, b= 2, y=  2
# a= 2, b= 2, y=  4
# a= 3, b= 2, y=  6
# a= 4, b= 2, y=  8
# a= 5, b= 2, y= 10
# a= 6, b= 2, y= 12
# a= 7, b= 2, y= 14
# a= 8, b= 2, y= 16
# a= 9, b= 2, y= 18
# a=10, b= 2, y= 20
# a=11, b= 2, y= 22
# a=12, b= 2, y= 24
# a=13, b= 2, y= 26
# a=14, b= 2, y= 28
# a=15, b= 2, y= 30
# a= 0, b= 3, y=  0
# a= 1, b= 3, y=  3
# a= 2, b= 3, y=  6
# a= 3, b= 3, y=  9
# a= 4, b= 3, y= 12
# a= 5, b= 3, y= 15
# a= 6, b= 3, y= 18
# a= 7, b= 3, y= 21
# a= 8, b= 3, y= 24
# a= 9, b= 3, y= 27
# a=10, b= 3, y= 30
# a=11, b= 3, y= 33
# a=12, b= 3, y= 36
# a=13, b= 3, y= 39
# a=14, b= 3, y= 42
# a=15, b= 3, y= 45
# a= 0, b= 4, y=  0
# a= 1, b= 4, y=  4
# a= 2, b= 4, y=  8
# a= 3, b= 4, y= 12
# a= 4, b= 4, y= 16
# a= 5, b= 4, y= 20
# a= 6, b= 4, y= 24
# a= 7, b= 4, y= 28
# a= 8, b= 4, y= 32
# a= 9, b= 4, y= 36
# a=10, b= 4, y= 40
# a=11, b= 4, y= 44
# a=12, b= 4, y= 48
# a=13, b= 4, y= 52
# a=14, b= 4, y= 56
# a=15, b= 4, y= 60
# a= 0, b= 5, y=  0
# a= 1, b= 5, y=  5
# a= 2, b= 5, y= 10
# a= 3, b= 5, y= 15
# a= 4, b= 5, y= 20
# a= 5, b= 5, y= 25
# a= 6, b= 5, y= 30
# a= 7, b= 5, y= 35
# a= 8, b= 5, y= 40
# a= 9, b= 5, y= 45
# a=10, b= 5, y= 50
# a=11, b= 5, y= 55
# a=12, b= 5, y= 60
# a=13, b= 5, y= 65
# a=14, b= 5, y= 70
# a=15, b= 5, y= 75
# a= 0, b= 6, y=  0
# a= 1, b= 6, y=  6
# a= 2, b= 6, y= 12
# a= 3, b= 6, y= 18
# a= 4, b= 6, y= 24
# a= 5, b= 6, y= 30
# a= 6, b= 6, y= 36
# a= 7, b= 6, y= 42
# a= 8, b= 6, y= 48
# a= 9, b= 6, y= 54
# a=10, b= 6, y= 60
# a=11, b= 6, y= 66
# a=12, b= 6, y= 72
# a=13, b= 6, y= 78
# a=14, b= 6, y= 84
# a=15, b= 6, y= 90
# a= 0, b= 7, y=  0
# a= 1, b= 7, y=  7
# a= 2, b= 7, y= 14
# a= 3, b= 7, y= 21
# a= 4, b= 7, y= 28
# a= 5, b= 7, y= 35
# a= 6, b= 7, y= 42
# a= 7, b= 7, y= 49
# a= 8, b= 7, y= 56
# a= 9, b= 7, y= 63
# a=10, b= 7, y= 70
# a=11, b= 7, y= 77
# a=12, b= 7, y= 84
# a=13, b= 7, y= 91
# a=14, b= 7, y= 98
# a=15, b= 7, y=105
# a= 0, b= 8, y=  0
# a= 1, b= 8, y=  8
# a= 2, b= 8, y= 16
# a= 3, b= 8, y= 24
# a= 4, b= 8, y= 32
# a= 5, b= 8, y= 40
# a= 6, b= 8, y= 48
# a= 7, b= 8, y= 56
# a= 8, b= 8, y= 64
# a= 9, b= 8, y= 72
# a=10, b= 8, y= 80
# a=11, b= 8, y= 88
# a=12, b= 8, y= 96
# a=13, b= 8, y=104
# a=14, b= 8, y=112
# a=15, b= 8, y=120
# a= 0, b= 9, y=  0
# a= 1, b= 9, y=  9
# a= 2, b= 9, y= 18
# a= 3, b= 9, y= 27
# a= 4, b= 9, y= 36
# a= 5, b= 9, y= 45
# a= 6, b= 9, y= 54
# a= 7, b= 9, y= 63
# a= 8, b= 9, y= 72
# a= 9, b= 9, y= 81
# a=10, b= 9, y= 90
# a=11, b= 9, y= 99
# a=12, b= 9, y=108
# a=13, b= 9, y=117
# a=14, b= 9, y=126
# a=15, b= 9, y=135
# a= 0, b=10, y=  0
# a= 1, b=10, y= 10
# a= 2, b=10, y= 20
# a= 3, b=10, y= 30
# a= 4, b=10, y= 40
# a= 5, b=10, y= 50
# a= 6, b=10, y= 60
# a= 7, b=10, y= 70
# a= 8, b=10, y= 80
# a= 9, b=10, y= 90
# a=10, b=10, y=100
# a=11, b=10, y=110
# a=12, b=10, y=120
# a=13, b=10, y=130
# a=14, b=10, y=140
# a=15, b=10, y=150
# a= 0, b=11, y=  0
# a= 1, b=11, y= 11
# a= 2, b=11, y= 22
# a= 3, b=11, y= 33
# a= 4, b=11, y= 44
# a= 5, b=11, y= 55
# a= 6, b=11, y= 66
# a= 7, b=11, y= 77
# a= 8, b=11, y= 88
# a= 9, b=11, y= 99
# a=10, b=11, y=110
# a=11, b=11, y=121
# a=12, b=11, y=132
# a=13, b=11, y=143
# a=14, b=11, y=154
# a=15, b=11, y=165
